{
  "destination_addresses":[
    "Washington, DC, USA",
    "Philadelphia, PA, USA",
    "Santa Barbara, CA, USA",
    "Miami, FL, USA",
    "Austin, TX, USA",
    "Napa County, CA, USA"
  ],
  "rows":[
    {
      "elements":[
        {
          "duration":{"text":"3 hours 54 mins","value":14045},
          "distance":{"text":"227 mi","value":365447},
          "status":"OK"
        },
        {
          "duration":{"text":"1 hour 44 mins","value":6235},
          "distance":{"text":"94.6 mi","value":152183},
          "status":"OK"
        },
        {
          "duration":{"text":"1 day 19 hours","value":153544},
          "distance":{"text":"2,879 mi","value":4632577},
          "status":"OK"
        },
        {
          "duration":{"text":"18 hours 50 mins","value":67807},
          "distance":{"text":"1,286 mi","value":2069017},
          "status":"OK"
        },
        {
          "duration":{"text":"1 day 2 hours","value":93478},
          "distance":{"text":"1,742 mi","value":2804052},
          "status":"OK"
        },
        {
          "duration":{"text":"1 day 19 hours","value":154634},
          "distance":{"text":"2,871 mi","value":4620863},
          "status":"OK"
        }]
    }],
  "origin_addresses":["New York, NY, USA"],
  "status":"OK"
}
